0.000000/23.027083/54.064583/0.153125/0.000000/16.811458/0.000000/5.943750
0.000000/16.375000/53.813542/0.052083/0.000000/22.480208/0.000000/7.279167
0.000000/24.130208/53.453125/0.000000/0.000000/11.322917/0.000000/11.093750
0.000000/23.559375/53.359375/0.000000/0.000000/13.718750/0.000000/9.362500
0.000000/27.017708/50.523958/0.000000/0.000000/5.425000/0.000000/17.033333
0.000000/24.369792/50.854167/0.000000/0.000000/11.453125/0.000000/13.322917
6.178125/18.741667/37.573958/0.000000/0.000000/16.259375/0.000000/21.246875
